{
    "count": 80529,
    "next": "https://api.app.secunia.com/api/v1/advisories/?page=2&page_size=1",
    "previous": null,
    "results": [
        {
            "id": 215177,
            "advisory_identifier": "SA87735",
            "title": "IBM Sterling B2B Integrator Multiple Cross-Site Scripting Vulnerabilities",
            "released": "2019-03-01T13:35:05Z",
            "modified_date": "2019-03-01T13:35:05Z",
            "criticality": 4,
            "criticality_description": "Less critical",
            "solution_status": 1,
            "solution_status_description": "No Fix",
            "where": 1,
            "where_description": "From remote",
            "cvss_score": 0,
            "cvss_vector": "",
            "type": 0,
            "is_zero_day": false,
            "cvss3_score": 6.1,
            "cvss3_vector": "CVSS:3.0/AV:N/AC:L/PR:N/UI:R/S:C/C:L/I:L/A:N/E:U/RL:U/RC:C",
            "cvss_score_ui": 6.1
        }
    ]
}
